<svg xmlns="http://www.w3.org/2000/svg" width="462" height="218" viewBox="0 0 462 218">
  <metadata><?xpacket begin="﻿" id="W5M0MpCehiHzreSzNTczkc9d"?>
<x:xmpmeta xmlns:x="adobe:ns:meta/" x:xmptk="Adobe XMP Core 5.6-c140 79.160451, 2017/05/06-01:08:21        ">
   <rdf:RDF xmlns:rdf="http://www.w3.org/1999/02/22-rdf-syntax-ns#">
      <rdf:Description rdf:about=""/>
   </rdf:RDF>
</x:xmpmeta>
                                                                                                    
                                                                                                    
                                                                                                    
                                                                                                    
                                                                                                    
                                                                                                    
                                                                                                    
                                                                                                    
                                                                                                    
                                                                                                    
                                                                                                    
                                                                                                    
                                                                                                    
                                                                                                    
                                                                                                    
                                                                                                    
                                                                                                    
                                                                                                    
                                                                                                    
                                                                                                    
                           
<?xpacket end="w"?></metadata>
<defs>
    <style>
      .cls-1 {
        fill: none;
        stroke: #5bbec8;
        stroke-width: 18.33px;
        fill-rule: evenodd;
      }

      .cls-2 {
        fill: #e3493e;
      }
    </style>
  </defs>
  <g id="SVG_-_Login_Graphic" data-name="SVG - Login Graphic">
    <g id="Graphic">
      <path id="Blue_Triangle" data-name="Blue Triangle" class="cls-1" d="M890.007,790L1124.39,545.007,1368,780.751Z" transform="translate(-888 -545)"/>
      <rect id="Line_2" data-name="Line 2" class="cls-2" y="119" width="239" height="5"/>
      <rect id="Line_1" data-name="Line 1" class="cls-2" x="69" y="99" width="170" height="5"/>
    </g>
  </g>
</svg>
