<svg xmlns="http://www.w3.org/2000/svg" width="481" height="98" viewBox="0 0 481 98">
  <metadata><?xpacket begin="﻿" id="W5M0MpCehiHzreSzNTczkc9d"?>
<x:xmpmeta xmlns:x="adobe:ns:meta/" x:xmptk="Adobe XMP Core 5.6-c140 79.160451, 2017/05/06-01:08:21        ">
   <rdf:RDF xmlns:rdf="http://www.w3.org/1999/02/22-rdf-syntax-ns#">
      <rdf:Description rdf:about=""/>
   </rdf:RDF>
</x:xmpmeta>
                                                                                                    
                                                                                                    
                                                                                                    
                                                                                                    
                                                                                                    
                                                                                                    
                                                                                                    
                                                                                                    
                                                                                                    
                                                                                                    
                                                                                                    
                                                                                                    
                                                                                                    
                                                                                                    
                                                                                                    
                                                                                                    
                                                                                                    
                                                                                                    
                                                                                                    
                                                                                                    
                           
<?xpacket end="w"?></metadata>
<defs>
    <style>
      .cls-1 {
        fill: #e3493e;
      }

      .cls-2, .cls-3, .cls-5 {
        fill: #333;
      }

      .cls-3 {
        font-size: 15.031px;
      }

      .cls-3, .cls-5 {
        font-family: Gotham;
      }

      .cls-4, .cls-5 {
        font-size: 31.565px;
      }

      .cls-6 {
        font-size: 49.602px;
        font-weight: 700;
        text-transform: uppercase;
      }
    </style>
  </defs>
  <g id="SVG_-_Economical_InDsights" data-name="SVG - Economical InDsights">
    <g id="Header">
      <rect class="cls-1" x="426" y="93" width="55" height="5"/>
      <circle id="Fill" class="cls-2" cx="20.5" cy="51.5" r="17.5"/>
      <text id="ECONOMICAL_INDSIGHT_" data-name="ECONOMICAL INDSIGHT  " class="cls-3" transform="translate(-0.737 14.379) scale(1.331)">ECONOMICAL INDSIGHT<tspan class="cls-4"> </tspan></text>
      <text id="_of_the_Week" data-name="  of the Week" class="cls-5" transform="translate(-4.738 14.379) scale(1.331)"> <tspan class="cls-6" dy="45.089">of the Week</tspan></text>
    </g>
  </g>
</svg>
