<svg xmlns="http://www.w3.org/2000/svg" width="325" height="127" viewBox="0 0 325 127">
  <metadata><?xpacket begin="﻿" id="W5M0MpCehiHzreSzNTczkc9d"?>
<x:xmpmeta xmlns:x="adobe:ns:meta/" x:xmptk="Adobe XMP Core 5.6-c140 79.160451, 2017/05/06-01:08:21        ">
   <rdf:RDF xmlns:rdf="http://www.w3.org/1999/02/22-rdf-syntax-ns#">
      <rdf:Description rdf:about=""/>
   </rdf:RDF>
</x:xmpmeta>
                                                                                                    
                                                                                                    
                                                                                                    
                                                                                                    
                                                                                                    
                                                                                                    
                                                                                                    
                                                                                                    
                                                                                                    
                                                                                                    
                                                                                                    
                                                                                                    
                                                                                                    
                                                                                                    
                                                                                                    
                                                                                                    
                                                                                                    
                                                                                                    
                                                                                                    
                                                                                                    
                           
<?xpacket end="w"?></metadata>
<defs>
    <style>
      .cls-1 {
        fill: #e44a3f;
      }

      .cls-2 {
        font-size: 26.262px;
        font-family: Gotham;
        font-weight: 700;
        text-transform: uppercase;
      }

      .cls-2, .cls-3, .cls-4 {
        fill: #fff;
      }

      .cls-4 {
        fill-rule: evenodd;
      }
    </style>
  </defs>
  <g id="SVG_-_Register_Option_" data-name="SVG - Register Option ">
    <g id="Headers">
      <rect id="Underline_copy_11" data-name="Underline copy 11" class="cls-1" x="265" y="122" width="55" height="5"/>
      <text id="Header" class="cls-2" transform="translate(-5.914 47.714) scale(2.513)">NOT A<tspan dy="22.323">MEMBER?</tspan></text>
      <ellipse id="Fill" class="cls-3" cx="73.5" cy="25" rx="16.5" ry="15"/>
      <path id="Fill-2" data-name="Fill" class="cls-4" d="M1629,768v19l13,2,13-6-4-14Z" transform="translate(-1372 -705)"/>
    </g>
  </g>
</svg>
